Derek Hale,Director,+1452589514,1986-01-05,111111
Alisson Argent,Accountant,+1584215847,1990-06-20,222222
Scott MacCall,Agent,+1362569584,1993-04-25,333333
Dylan OBrian,Agent,+1245865521,1993-03-18,444444