Blue-Bay Platinum,5,AI,First line hotel with beautiful area,3
Golden-Flamingo,4,BB,,2
Ideal Prime Beach,5,UAI,,3
Ideal Premium,5,UAI,,3
Ideal Panorama HV,4,AI,,3
Bodrum Beach Resort,5,UAI,,4
Voyage Bodrum,4,AI,,4
The Westin Bonaventure Hotel,4,No meals,,12
Sheraton Gateway Hotel,4,No meals,,12
Courtyard Miami Airport,3,AI,,11
Four Seasons Hotel Miami,5,UAI,,11
JW Marriott Marquis Miami,5,UAI,,11
Green Nature Diamond,5,UAI,,3
Aegeant Hotel,5,UAI,,3